MIPS 5-Stage Pipelined Processor Simulation/simulation/qsim/MIPS_Processor.msim.vcd
$comment
	File created using the following command:
		vcd file MIPS_Processor.msim.vcd -direction
$end
$date
	Mon Oct 25 19:01:28 2021
$end
$version
	ModelSim Version 2020.1
$end
$timescale
	1ps
$end

$scope module mips_processor_vhd_vec_tst $end
$var wire 1 ! A [31] $end
$var wire 1 " A [30] $end
$var wire 1 # A [29] $end
$var wire 1 $ A [28] $end
$var wire 1 % A [27] $end
$var wire 1 & A [26] $end
$var wire 1 ' A [25] $end
$var wire 1 ( A [24] $end
$var wire 1 ) A [23] $end
$var wire 1 * A [22] $end
$var wire 1 + A [21] $end
$var wire 1 , A [20] $end
$var wire 1 - A [19] $end
$var wire 1 . A [18] $end
$var wire 1 / A [17] $end
$var wire 1 0 A [16] $end
$var wire 1 1 A [15] $end
$var wire 1 2 A [14] $end
$var wire 1 3 A [13] $end
$var wire 1 4 A [12] $end
$var wire 1 5 A [11] $end
$var wire 1 6 A [10] $end
$var wire 1 7 A [9] $end
$var wire 1 8 A [8] $end
$var wire 1 9 A [7] $end
$var wire 1 : A [6] $end
$var wire 1 ; A [5] $end
$var wire 1 < A [4] $end
$var wire 1 = A [3] $end
$var wire 1 > A [2] $end
$var wire 1 ? A [1] $end
$var wire 1 @ A [0] $end
$var wire 1 A B [31] $end
$var wire 1 B B [30] $end
$var wire 1 C B [29] $end
$var wire 1 D B [28] $end
$var wire 1 E B [27] $end
$var wire 1 F B [26] $end
$var wire 1 G B [25] $end
$var wire 1 H B [24] $end
$var wire 1 I B [23] $end
$var wire 1 J B [22] $end
$var wire 1 K B [21] $end
$var wire 1 L B [20] $end
$var wire 1 M B [19] $end
$var wire 1 N B [18] $end
$var wire 1 O B [17] $end
$var wire 1 P B [16] $end
$var wire 1 Q B [15] $end
$var wire 1 R B [14] $end
$var wire 1 S B [13] $end
$var wire 1 T B [12] $end
$var wire 1 U B [11] $end
$var wire 1 V B [10] $end
$var wire 1 W B [9] $end
$var wire 1 X B [8] $end
$var wire 1 Y B [7] $end
$var wire 1 Z B [6] $end
$var wire 1 [ B [5] $end
$var wire 1 \ B [4] $end
$var wire 1 ] B [3] $end
$var wire 1 ^ B [2] $end
$var wire 1 _ B [1] $end
$var wire 1 ` B [0] $end
$var wire 1 a cIN $end
$var wire 1 b cOUT $end
$var wire 1 c Sum [31] $end
$var wire 1 d Sum [30] $end
$var wire 1 e Sum [29] $end
$var wire 1 f Sum [28] $end
$var wire 1 g Sum [27] $end
$var wire 1 h Sum [26] $end
$var wire 1 i Sum [25] $end
$var wire 1 j Sum [24] $end
$var wire 1 k Sum [23] $end
$var wire 1 l Sum [22] $end
$var wire 1 m Sum [21] $end
$var wire 1 n Sum [20] $end
$var wire 1 o Sum [19] $end
$var wire 1 p Sum [18] $end
$var wire 1 q Sum [17] $end
$var wire 1 r Sum [16] $end
$var wire 1 s Sum [15] $end
$var wire 1 t Sum [14] $end
$var wire 1 u Sum [13] $end
$var wire 1 v Sum [12] $end
$var wire 1 w Sum [11] $end
$var wire 1 x Sum [10] $end
$var wire 1 y Sum [9] $end
$var wire 1 z Sum [8] $end
$var wire 1 { Sum [7] $end
$var wire 1 | Sum [6] $end
$var wire 1 } Sum [5] $end
$var wire 1 ~ Sum [4] $end
$var wire 1 !! Sum [3] $end
$var wire 1 "! Sum [2] $end
$var wire 1 #! Sum [1] $end
$var wire 1 $! Sum [0] $end

$scope module i1 $end
$var wire 1 %! gnd $end
$var wire 1 &! vcc $end
$var wire 1 '! unknown $end
$var wire 1 (! devoe $end
$var wire 1 )! devclrn $end
$var wire 1 *! devpor $end
$var wire 1 +! ww_devoe $end
$var wire 1 ,! ww_devclrn $end
$var wire 1 -! ww_devpor $end
$var wire 1 .! ww_A [31] $end
$var wire 1 /! ww_A [30] $end
$var wire 1 0! ww_A [29] $end
$var wire 1 1! ww_A [28] $end
$var wire 1 2! ww_A [27] $end
$var wire 1 3! ww_A [26] $end
$var wire 1 4! ww_A [25] $end
$var wire 1 5! ww_A [24] $end
$var wire 1 6! ww_A [23] $end
$var wire 1 7! ww_A [22] $end
$var wire 1 8! ww_A [21] $end
$var wire 1 9! ww_A [20] $end
$var wire 1 :! ww_A [19] $end
$var wire 1 ;! ww_A [18] $end
$var wire 1 <! ww_A [17] $end
$var wire 1 =! ww_A [16] $end
$var wire 1 >! ww_A [15] $end
$var wire 1 ?! ww_A [14] $end
$var wire 1 @! ww_A [13] $end
$var wire 1 A! ww_A [12] $end
$var wire 1 B! ww_A [11] $end
$var wire 1 C! ww_A [10] $end
$var wire 1 D! ww_A [9] $end
$var wire 1 E! ww_A [8] $end
$var wire 1 F! ww_A [7] $end
$var wire 1 G! ww_A [6] $end
$var wire 1 H! ww_A [5] $end
$var wire 1 I! ww_A [4] $end
$var wire 1 J! ww_A [3] $end
$var wire 1 K! ww_A [2] $end
$var wire 1 L! ww_A [1] $end
$var wire 1 M! ww_A [0] $end
$var wire 1 N! ww_B [31] $end
$var wire 1 O! ww_B [30] $end
$var wire 1 P! ww_B [29] $end
$var wire 1 Q! ww_B [28] $end
$var wire 1 R! ww_B [27] $end
$var wire 1 S! ww_B [26] $end
$var wire 1 T! ww_B [25] $end
$var wire 1 U! ww_B [24] $end
$var wire 1 V! ww_B [23] $end
$var wire 1 W! ww_B [22] $end
$var wire 1 X! ww_B [21] $end
$var wire 1 Y! ww_B [20] $end
$var wire 1 Z! ww_B [19] $end
$var wire 1 [! ww_B [18] $end
$var wire 1 \! ww_B [17] $end
$var wire 1 ]! ww_B [16] $end
$var wire 1 ^! ww_B [15] $end
$var wire 1 _! ww_B [14] $end
$var wire 1 `! ww_B [13] $end
$var wire 1 a! ww_B [12] $end
$var wire 1 b! ww_B [11] $end
$var wire 1 c! ww_B [10] $end
$var wire 1 d! ww_B [9] $end
$var wire 1 e! ww_B [8] $end
$var wire 1 f! ww_B [7] $end
$var wire 1 g! ww_B [6] $end
$var wire 1 h! ww_B [5] $end
$var wire 1 i! ww_B [4] $end
$var wire 1 j! ww_B [3] $end
$var wire 1 k! ww_B [2] $end
$var wire 1 l! ww_B [1] $end
$var wire 1 m! ww_B [0] $end
$var wire 1 n! ww_cIN $end
$var wire 1 o! ww_Sum [31] $end
$var wire 1 p! ww_Sum [30] $end
$var wire 1 q! ww_Sum [29] $end
$var wire 1 r! ww_Sum [28] $end
$var wire 1 s! ww_Sum [27] $end
$var wire 1 t! ww_Sum [26] $end
$var wire 1 u! ww_Sum [25] $end
$var wire 1 v! ww_Sum [24] $end
$var wire 1 w! ww_Sum [23] $end
$var wire 1 x! ww_Sum [22] $end
$var wire 1 y! ww_Sum [21] $end
$var wire 1 z! ww_Sum [20] $end
$var wire 1 {! ww_Sum [19] $end
$var wire 1 |! ww_Sum [18] $end
$var wire 1 }! ww_Sum [17] $end
$var wire 1 ~! ww_Sum [16] $end
$var wire 1 !" ww_Sum [15] $end
$var wire 1 "" ww_Sum [14] $end
$var wire 1 #" ww_Sum [13] $end
$var wire 1 $" ww_Sum [12] $end
$var wire 1 %" ww_Sum [11] $end
$var wire 1 &" ww_Sum [10] $end
$var wire 1 '" ww_Sum [9] $end
$var wire 1 (" ww_Sum [8] $end
$var wire 1 )" ww_Sum [7] $end
$var wire 1 *" ww_Sum [6] $end
$var wire 1 +" ww_Sum [5] $end
$var wire 1 ," ww_Sum [4] $end
$var wire 1 -" ww_Sum [3] $end
$var wire 1 ." ww_Sum [2] $end
$var wire 1 /" ww_Sum [1] $end
$var wire 1 0" ww_Sum [0] $end
$var wire 1 1" ww_cOUT $end
$var wire 1 2" \Sum[0]~output_o\ $end
$var wire 1 3" \Sum[1]~output_o\ $end
$var wire 1 4" \Sum[2]~output_o\ $end
$var wire 1 5" \Sum[3]~output_o\ $end
$var wire 1 6" \Sum[4]~output_o\ $end
$var wire 1 7" \Sum[5]~output_o\ $end
$var wire 1 8" \Sum[6]~output_o\ $end
$var wire 1 9" \Sum[7]~output_o\ $end
$var wire 1 :" \Sum[8]~output_o\ $end
$var wire 1 ;" \Sum[9]~output_o\ $end
$var wire 1 <" \Sum[10]~output_o\ $end
$var wire 1 =" \Sum[11]~output_o\ $end
$var wire 1 >" \Sum[12]~output_o\ $end
$var wire 1 ?" \Sum[13]~output_o\ $end
$var wire 1 @" \Sum[14]~output_o\ $end
$var wire 1 A" \Sum[15]~output_o\ $end
$var wire 1 B" \Sum[16]~output_o\ $end
$var wire 1 C" \Sum[17]~output_o\ $end
$var wire 1 D" \Sum[18]~output_o\ $end
$var wire 1 E" \Sum[19]~output_o\ $end
$var wire 1 F" \Sum[20]~output_o\ $end
$var wire 1 G" \Sum[21]~output_o\ $end
$var wire 1 H" \Sum[22]~output_o\ $end
$var wire 1 I" \Sum[23]~output_o\ $end
$var wire 1 J" \Sum[24]~output_o\ $end
$var wire 1 K" \Sum[25]~output_o\ $end
$var wire 1 L" \Sum[26]~output_o\ $end
$var wire 1 M" \Sum[27]~output_o\ $end
$var wire 1 N" \Sum[28]~output_o\ $end
$var wire 1 O" \Sum[29]~output_o\ $end
$var wire 1 P" \Sum[30]~output_o\ $end
$var wire 1 Q" \Sum[31]~output_o\ $end
$var wire 1 R" \cOUT~output_o\ $end
$var wire 1 S" \B[0]~input_o\ $end
$var wire 1 T" \A[0]~input_o\ $end
$var wire 1 U" \cIN~input_o\ $end
$var wire 1 V" \FA_32bit|Gen_FA:0:FAX|Sum~0_combout\ $end
$var wire 1 W" \A[1]~input_o\ $end
$var wire 1 X" \B[1]~input_o\ $end
$var wire 1 Y" \FA_32bit|Gen_FA:1:FAX|Sum~0_combout\ $end
$var wire 1 Z" \B[2]~input_o\ $end
$var wire 1 [" \A[2]~input_o\ $end
$var wire 1 \" \FA_32bit|Gen_FA:2:FAX|Sum~0_combout\ $end
$var wire 1 ]" \A[3]~input_o\ $end
$var wire 1 ^" \B[3]~input_o\ $end
$var wire 1 _" \FA_32bit|Gen_FA:3:FAX|Sum~0_combout\ $end
$var wire 1 `" \A[4]~input_o\ $end
$var wire 1 a" \B[4]~input_o\ $end
$var wire 1 b" \FA_32bit|Gen_FA:4:FAX|Sum~0_combout\ $end
$var wire 1 c" \B[5]~input_o\ $end
$var wire 1 d" \A[5]~input_o\ $end
$var wire 1 e" \FA_32bit|Gen_FA:5:FAX|Sum~0_combout\ $end
$var wire 1 f" \A[6]~input_o\ $end
$var wire 1 g" \B[6]~input_o\ $end
$var wire 1 h" \FA_32bit|Gen_FA:6:FAX|Sum~0_combout\ $end
$var wire 1 i" \B[7]~input_o\ $end
$var wire 1 j" \A[7]~input_o\ $end
$var wire 1 k" \FA_32bit|Gen_FA:7:FAX|Sum~0_combout\ $end
$var wire 1 l" \B[8]~input_o\ $end
$var wire 1 m" \A[8]~input_o\ $end
$var wire 1 n" \FA_32bit|Gen_FA:8:FAX|Sum~0_combout\ $end
$var wire 1 o" \B[9]~input_o\ $end
$var wire 1 p" \A[9]~input_o\ $end
$var wire 1 q" \FA_32bit|Gen_FA:9:FAX|Sum~0_combout\ $end
$var wire 1 r" \B[10]~input_o\ $end
$var wire 1 s" \A[10]~input_o\ $end
$var wire 1 t" \FA_32bit|Gen_FA:10:FAX|Sum~0_combout\ $end
$var wire 1 u" \A[11]~input_o\ $end
$var wire 1 v" \B[11]~input_o\ $end
$var wire 1 w" \FA_32bit|Gen_FA:11:FAX|Sum~0_combout\ $end
$var wire 1 x" \A[12]~input_o\ $end
$var wire 1 y" \B[12]~input_o\ $end
$var wire 1 z" \FA_32bit|Gen_FA:12:FAX|Sum~0_combout\ $end
$var wire 1 {" \B[13]~input_o\ $end
$var wire 1 |" \A[13]~input_o\ $end
$var wire 1 }" \FA_32bit|Gen_FA:13:FAX|Sum~0_combout\ $end
$var wire 1 ~" \B[14]~input_o\ $end
$var wire 1 !# \A[14]~input_o\ $end
$var wire 1 "# \FA_32bit|Gen_FA:14:FAX|Sum~0_combout\ $end
$var wire 1 ## \B[15]~input_o\ $end
$var wire 1 $# \A[15]~input_o\ $end
$var wire 1 %# \FA_32bit|Gen_FA:15:FAX|Sum~0_combout\ $end
$var wire 1 &# \A[16]~input_o\ $end
$var wire 1 '# \B[16]~input_o\ $end
$var wire 1 (# \FA_32bit|Gen_FA:16:FAX|Sum~0_combout\ $end
$var wire 1 )# \B[17]~input_o\ $end
$var wire 1 *# \A[17]~input_o\ $end
$var wire 1 +# \FA_32bit|Gen_FA:17:FAX|Sum~0_combout\ $end
$var wire 1 ,# \B[18]~input_o\ $end
$var wire 1 -# \A[18]~input_o\ $end
$var wire 1 .# \FA_32bit|Gen_FA:18:FAX|Sum~0_combout\ $end
$var wire 1 /# \B[19]~input_o\ $end
$var wire 1 0# \A[19]~input_o\ $end
$var wire 1 1# \FA_32bit|Gen_FA:19:FAX|Sum~0_combout\ $end
$var wire 1 2# \A[20]~input_o\ $end
$var wire 1 3# \B[20]~input_o\ $end
$var wire 1 4# \FA_32bit|Gen_FA:20:FAX|Sum~0_combout\ $end
$var wire 1 5# \B[21]~input_o\ $end
$var wire 1 6# \A[21]~input_o\ $end
$var wire 1 7# \FA_32bit|Gen_FA:21:FAX|Sum~0_combout\ $end
$var wire 1 8# \B[22]~input_o\ $end
$var wire 1 9# \A[22]~input_o\ $end
$var wire 1 :# \FA_32bit|Gen_FA:22:FAX|Sum~0_combout\ $end
$var wire 1 ;# \B[23]~input_o\ $end
$var wire 1 <# \A[23]~input_o\ $end
$var wire 1 =# \FA_32bit|Gen_FA:23:FAX|Sum~0_combout\ $end
$var wire 1 ># \A[24]~input_o\ $end
$var wire 1 ?# \B[24]~input_o\ $end
$var wire 1 @# \FA_32bit|Gen_FA:24:FAX|Sum~0_combout\ $end
$var wire 1 A# \B[25]~input_o\ $end
$var wire 1 B# \A[25]~input_o\ $end
$var wire 1 C# \FA_32bit|Gen_FA:25:FAX|Sum~0_combout\ $end
$var wire 1 D# \A[26]~input_o\ $end
$var wire 1 E# \B[26]~input_o\ $end
$var wire 1 F# \FA_32bit|Gen_FA:26:FAX|Sum~0_combout\ $end
$var wire 1 G# \A[27]~input_o\ $end
$var wire 1 H# \B[27]~input_o\ $end
$var wire 1 I# \FA_32bit|Gen_FA:27:FAX|Sum~0_combout\ $end
$var wire 1 J# \A[28]~input_o\ $end
$var wire 1 K# \B[28]~input_o\ $end
$var wire 1 L# \FA_32bit|Gen_FA:28:FAX|Sum~0_combout\ $end
$var wire 1 M# \B[29]~input_o\ $end
$var wire 1 N# \A[29]~input_o\ $end
$var wire 1 O# \FA_32bit|Gen_FA:29:FAX|Sum~0_combout\ $end
$var wire 1 P# \A[30]~input_o\ $end
$var wire 1 Q# \B[30]~input_o\ $end
$var wire 1 R# \FA_32bit|Gen_FA:30:FAX|Sum~0_combout\ $end
$var wire 1 S# \A[31]~input_o\ $end
$var wire 1 T# \B[31]~input_o\ $end
$var wire 1 U# \FA_32bit|Gen_FA:31:FAX|Sum~0_combout\ $end
$upscope $end
$upscope $end
$enddefinitions $end
#0
$dumpvars
xa
0b
0%!
1&!
x'!
1(!
1)!
1*!
1+!
1,!
1-!
xn!
01"
02"
03"
04"
05"
06"
07"
08"
09"
0:"
0;"
0<"
0="
0>"
0?"
0@"
0A"
0B"
0C"
0D"
0E"
0F"
0G"
0H"
0I"
0J"
0K"
0L"
0M"
0N"
0O"
0P"
0Q"
0R"
xS"
xT"
xU"
xV"
xW"
xX"
xY"
xZ"
x["
x\"
x]"
x^"
x_"
x`"
xa"
xb"
xc"
xd"
xe"
xf"
xg"
xh"
xi"
xj"
xk"
xl"
xm"
xn"
xo"
xp"
xq"
xr"
xs"
xt"
xu"
xv"
xw"
xx"
xy"
xz"
x{"
x|"
x}"
x~"
x!#
x"#
x##
x$#
x%#
x&#
x'#
x(#
x)#
x*#
x+#
x,#
x-#
x.#
x/#
x0#
x1#
x2#
x3#
x4#
x5#
x6#
x7#
x8#
x9#
x:#
x;#
x<#
x=#
x>#
x?#
x@#
xA#
xB#
xC#
xD#
xE#
xF#
xG#
xH#
xI#
xJ#
xK#
xL#
xM#
xN#
xO#
xP#
xQ#
xR#
xS#
xT#
xU#
0!
0"
0#
0$
0%
0&
0'
0(
0)
0*
0+
0,
0-
0.
0/
00
01
02
03
04
05
06
07
08
09
0:
0;
0<
0=
0>
0?
0@
0A
0B
0C
0D
0E
0F
0G
0H
0I
0J
0K
0L
0M
0N
0O
0P
0Q
0R
0S
0T
0U
0V
0W
0X
0Y
0Z
0[
0\
0]
0^
0_
0`
0.!
0/!
00!
01!
02!
03!
04!
05!
06!
07!
08!
09!
0:!
0;!
0<!
0=!
0>!
0?!
0@!
0A!
0B!
0C!
0D!
0E!
0F!
0G!
0H!
0I!
0J!
0K!
0L!
0M!
0N!
0O!
0P!
0Q!
0R!
0S!
0T!
0U!
0V!
0W!
0X!
0Y!
0Z!
0[!
0\!
0]!
0^!
0_!
0`!
0a!
0b!
0c!
0d!
0e!
0f!
0g!
0h!
0i!
0j!
0k!
0l!
0m!
0o!
0p!
0q!
0r!
0s!
0t!
0u!
0v!
0w!
0x!
0y!
0z!
0{!
0|!
0}!
0~!
0!"
0""
0#"
0$"
0%"
0&"
0'"
0("
0)"
0*"
0+"
0,"
0-"
0."
0/"
00"
0c
0d
0e
0f
0g
0h
0i
0j
0k
0l
0m
0n
0o
0p
0q
0r
0s
0t
0u
0v
0w
0x
0y
0z
0{
0|
0}
0~
0!!
0"!
0#!
0$!
$end
#721
0m"
03#
09#
0?#
#729
0W"
0["
0g"
0p"
0y"
0&#
0'#
0*#
0J#
0P#
#731
0]"
0v"
0-#
06#
08#
0S#
#739
0S"
0X"
0Z"
0d"
0f"
0i"
0j"
0!#
0##
0)#
0/#
0B#
0K#
#741
0r"
0u"
0,#
02#
05#
0G#
#749
0T"
0c"
0x"
0|"
0~"
00#
0N#
0Q#
#751
0l"
0<#
0>#
#759
0`"
0a"
0{"
0$#
0H#
#761
0^"
0;#
0A#
0T#
#769
0M#
#771
0s"
0D#
0E#
#779
0o"
#2919
xD"
x<"
x|!
x&"
xx
xp
#2939
xQ"
xo!
xc
#2951
xK"
xI"
xu!
xw!
xk
xi
#3008
x5"
x-"
x!!
#3045
x2"
x0"
x$!
#3047
xE"
xO"
x{!
xq!
xo
xe
#3050
xC"
x}!
xq
#3051
x6"
x,"
x~
#3055
x4"
x."
x"!
#3058
x>"
x$"
xv
#3063
x3"
x/"
x#!
#3083
x="
x%"
xw
#3109
xF"
xz!
xn
#3128
x8"
x*"
x|
#3131
xJ"
xv!
xj
#3157
xH"
xx!
xl
#3170
x@"
x""
xt
#3216
xA"
x!"
xs
#3220
xG"
xy!
xm
#3231
xL"
xt!
xh
#3247
xP"
xp!
xd
#3253
x?"
x#"
xu
#3270
x7"
x+"
x}
#3275
x9"
x)"
x{
#3336
xN"
xr!
xf
#3506
xB"
x~!
xr
#4264
x:"
x("
xz
#4501
xM"
xs!
xg
#4503
x;"
x'"
xy
